Components/RAM/simulation/qsim/memRAM.msim.vcd
$comment
	File created using the following command:
		vcd file memRAM.msim.vcd -direction
$end
$date
	Sat Jun 15 01:46:37 2019
$end
$version
	ModelSim Version 10.1d
$end
$timescale
	1ps
$end
$scope module memRAM_vlg_vec_tst $end
$var reg 1 ! clk $end
$var reg 8 " ent [7:0] $end
$var reg 8 # key [7:0] $end
$var reg 1 $ R $end
$var reg 1 % reset $end
$var reg 1 & W $end
$var wire 1 ' saida [7] $end
$var wire 1 ( saida [6] $end
$var wire 1 ) saida [5] $end
$var wire 1 * saida [4] $end
$var wire 1 + saida [3] $end
$var wire 1 , saida [2] $end
$var wire 1 - saida [1] $end
$var wire 1 . saida [0] $end
$var wire 1 / sampler $end
$scope module i1 $end
$var wire 1 0 gnd $end
$var wire 1 1 vcc $end
$var wire 1 2 unknown $end
$var tri1 1 3 devclrn $end
$var tri1 1 4 devpor $end
$var tri1 1 5 devoe $end
$var wire 1 6 genx:0:geny:2:gen|process_0~0_combout $end
$var wire 1 7 genx:0:geny:1:gen|process_0~0_combout $end
$var wire 1 8 saida_sgn[0]~0_combout $end
$var wire 1 9 genx:2:geny:2:gen|process_0~0_combout $end
$var wire 1 : genx:2:geny:1:gen|process_0~0_combout $end
$var wire 1 ; saida_sgn[0]~5_combout $end
$var wire 1 < saida_sgn[1]~10_combout $end
$var wire 1 = saida_sgn[1]~15_combout $end
$var wire 1 > saida_sgn[2]~20_combout $end
$var wire 1 ? saida_sgn[2]~25_combout $end
$var wire 1 @ saida_sgn[3]~30_combout $end
$var wire 1 A saida_sgn[3]~35_combout $end
$var wire 1 B saida_sgn[4]~40_combout $end
$var wire 1 C saida_sgn[4]~45_combout $end
$var wire 1 D saida_sgn[5]~50_combout $end
$var wire 1 E saida_sgn[5]~55_combout $end
$var wire 1 F saida_sgn[6]~60_combout $end
$var wire 1 G saida_sgn[6]~65_combout $end
$var wire 1 H saida_sgn[7]~70_combout $end
$var wire 1 I saida_sgn[7]~75_combout $end
$var wire 1 J genx:0:geny:1:gen|ld~combout $end
$var wire 1 K genx:0:geny:2:gen|ld~combout $end
$var wire 1 L genx:2:geny:1:gen|ld~combout $end
$var wire 1 M genx:2:geny:2:gen|ld~combout $end
$var wire 1 N clk~combout $end
$var wire 1 O R~combout $end
$var wire 1 P reset~combout $end
$var wire 1 Q W~combout $end
$var wire 1 R genx:1:geny:0:gen|ld~combout $end
$var wire 1 S genx:1:geny:0:gen|process_0~0_combout $end
$var wire 1 T genx:0:geny:3:gen|process_0~0_combout $end
$var wire 1 U saida_sgn[0]~1_combout $end
$var wire 1 V genx:1:geny:2:gen|ld~combout $end
$var wire 1 W genx:1:geny:2:gen|process_0~0_combout $end
$var wire 1 X genx:1:geny:1:gen|process_0~0_combout $end
$var wire 1 Y saida_sgn[0]~2_combout $end
$var wire 1 Z genx:2:geny:0:gen|ld~combout $end
$var wire 1 [ genx:2:geny:0:gen|process_0~0_combout $end
$var wire 1 \ genx:1:geny:3:gen|process_0~0_combout $end
$var wire 1 ] saida_sgn[0]~3_combout $end
$var wire 1 ^ saida_sgn[0]~4_combout $end
$var wire 1 _ genx:3:geny:0:gen|ld~combout $end
$var wire 1 ` genx:3:geny:0:gen|process_0~0_combout $end
$var wire 1 a genx:2:geny:3:gen|process_0~0_combout $end
$var wire 1 b saida_sgn[0]~6_combout $end
$var wire 1 c genx:3:geny:2:gen|ld~combout $end
$var wire 1 d genx:3:geny:2:gen|process_0~0_combout $end
$var wire 1 e genx:3:geny:1:gen|process_0~0_combout $end
$var wire 1 f saida_sgn[0]~7_combout $end
$var wire 1 g genx:3:geny:3:gen|process_0~0_combout $end
$var wire 1 h genx:0:geny:0:gen|process_0~0_combout $end
$var wire 1 i genx:0:geny:0:gen|ld~combout $end
$var wire 1 j saida_sgn[0]~8_combout $end
$var wire 1 k saida_sgn[0]~9_combout $end
$var wire 1 l saida~0_combout $end
$var wire 1 m genx:0:geny:3:gen|ld~combout $end
$var wire 1 n saida_sgn[1]~11_combout $end
$var wire 1 o genx:1:geny:1:gen|ld~combout $end
$var wire 1 p saida_sgn[1]~12_combout $end
$var wire 1 q genx:1:geny:3:gen|ld~combout $end
$var wire 1 r saida_sgn[1]~13_combout $end
$var wire 1 s saida_sgn[1]~14_combout $end
$var wire 1 t genx:2:geny:3:gen|ld~combout $end
$var wire 1 u saida_sgn[1]~16_combout $end
$var wire 1 v genx:3:geny:1:gen|ld~combout $end
$var wire 1 w saida_sgn[1]~17_combout $end
$var wire 1 x genx:3:geny:3:gen|ld~combout $end
$var wire 1 y saida_sgn[1]~18_combout $end
$var wire 1 z saida_sgn[1]~19_combout $end
$var wire 1 { saida~1_combout $end
$var wire 1 | saida_sgn[2]~21_combout $end
$var wire 1 } saida_sgn[2]~22_combout $end
$var wire 1 ~ saida_sgn[2]~23_combout $end
$var wire 1 !! saida_sgn[2]~24_combout $end
$var wire 1 "! saida_sgn[2]~26_combout $end
$var wire 1 #! saida_sgn[2]~27_combout $end
$var wire 1 $! saida_sgn[2]~28_combout $end
$var wire 1 %! saida_sgn[2]~29_combout $end
$var wire 1 &! saida~2_combout $end
$var wire 1 '! saida_sgn[3]~31_combout $end
$var wire 1 (! saida_sgn[3]~32_combout $end
$var wire 1 )! saida_sgn[3]~33_combout $end
$var wire 1 *! saida_sgn[3]~34_combout $end
$var wire 1 +! saida_sgn[3]~36_combout $end
$var wire 1 ,! saida_sgn[3]~37_combout $end
$var wire 1 -! saida_sgn[3]~38_combout $end
$var wire 1 .! saida_sgn[3]~39_combout $end
$var wire 1 /! saida~3_combout $end
$var wire 1 0! saida_sgn[4]~41_combout $end
$var wire 1 1! saida_sgn[4]~42_combout $end
$var wire 1 2! saida_sgn[4]~43_combout $end
$var wire 1 3! saida_sgn[4]~44_combout $end
$var wire 1 4! saida_sgn[4]~46_combout $end
$var wire 1 5! saida_sgn[4]~47_combout $end
$var wire 1 6! saida_sgn[4]~48_combout $end
$var wire 1 7! saida_sgn[4]~49_combout $end
$var wire 1 8! saida~4_combout $end
$var wire 1 9! saida_sgn[5]~51_combout $end
$var wire 1 :! saida_sgn[5]~52_combout $end
$var wire 1 ;! saida_sgn[5]~53_combout $end
$var wire 1 <! saida_sgn[5]~54_combout $end
$var wire 1 =! saida_sgn[5]~56_combout $end
$var wire 1 >! saida_sgn[5]~57_combout $end
$var wire 1 ?! saida_sgn[5]~58_combout $end
$var wire 1 @! saida_sgn[5]~59_combout $end
$var wire 1 A! saida~5_combout $end
$var wire 1 B! saida_sgn[6]~61_combout $end
$var wire 1 C! saida_sgn[6]~62_combout $end
$var wire 1 D! saida_sgn[6]~63_combout $end
$var wire 1 E! saida_sgn[6]~64_combout $end
$var wire 1 F! saida_sgn[6]~66_combout $end
$var wire 1 G! saida_sgn[6]~67_combout $end
$var wire 1 H! saida_sgn[6]~68_combout $end
$var wire 1 I! saida_sgn[6]~69_combout $end
$var wire 1 J! saida~6_combout $end
$var wire 1 K! saida_sgn[7]~71_combout $end
$var wire 1 L! saida_sgn[7]~72_combout $end
$var wire 1 M! saida_sgn[7]~73_combout $end
$var wire 1 N! saida_sgn[7]~74_combout $end
$var wire 1 O! saida_sgn[7]~76_combout $end
$var wire 1 P! saida_sgn[7]~77_combout $end
$var wire 1 Q! saida_sgn[7]~78_combout $end
$var wire 1 R! saida_sgn[7]~79_combout $end
$var wire 1 S! saida~7_combout $end
$var wire 1 T! genx:0:geny:1:gen|reg [7] $end
$var wire 1 U! genx:0:geny:1:gen|reg [6] $end
$var wire 1 V! genx:0:geny:1:gen|reg [5] $end
$var wire 1 W! genx:0:geny:1:gen|reg [4] $end
$var wire 1 X! genx:0:geny:1:gen|reg [3] $end
$var wire 1 Y! genx:0:geny:1:gen|reg [2] $end
$var wire 1 Z! genx:0:geny:1:gen|reg [1] $end
$var wire 1 [! genx:0:geny:1:gen|reg [0] $end
$var wire 1 \! genx:0:geny:2:gen|reg [7] $end
$var wire 1 ]! genx:0:geny:2:gen|reg [6] $end
$var wire 1 ^! genx:0:geny:2:gen|reg [5] $end
$var wire 1 _! genx:0:geny:2:gen|reg [4] $end
$var wire 1 `! genx:0:geny:2:gen|reg [3] $end
$var wire 1 a! genx:0:geny:2:gen|reg [2] $end
$var wire 1 b! genx:0:geny:2:gen|reg [1] $end
$var wire 1 c! genx:0:geny:2:gen|reg [0] $end
$var wire 1 d! genx:0:geny:3:gen|reg [7] $end
$var wire 1 e! genx:0:geny:3:gen|reg [6] $end
$var wire 1 f! genx:0:geny:3:gen|reg [5] $end
$var wire 1 g! genx:0:geny:3:gen|reg [4] $end
$var wire 1 h! genx:0:geny:3:gen|reg [3] $end
$var wire 1 i! genx:0:geny:3:gen|reg [2] $end
$var wire 1 j! genx:0:geny:3:gen|reg [1] $end
$var wire 1 k! genx:0:geny:3:gen|reg [0] $end
$var wire 1 l! genx:1:geny:0:gen|reg [7] $end
$var wire 1 m! genx:1:geny:0:gen|reg [6] $end
$var wire 1 n! genx:1:geny:0:gen|reg [5] $end
$var wire 1 o! genx:1:geny:0:gen|reg [4] $end
$var wire 1 p! genx:1:geny:0:gen|reg [3] $end
$var wire 1 q! genx:1:geny:0:gen|reg [2] $end
$var wire 1 r! genx:1:geny:0:gen|reg [1] $end
$var wire 1 s! genx:1:geny:0:gen|reg [0] $end
$var wire 1 t! genx:1:geny:1:gen|reg [7] $end
$var wire 1 u! genx:1:geny:1:gen|reg [6] $end
$var wire 1 v! genx:1:geny:1:gen|reg [5] $end
$var wire 1 w! genx:1:geny:1:gen|reg [4] $end
$var wire 1 x! genx:1:geny:1:gen|reg [3] $end
$var wire 1 y! genx:1:geny:1:gen|reg [2] $end
$var wire 1 z! genx:1:geny:1:gen|reg [1] $end
$var wire 1 {! genx:1:geny:1:gen|reg [0] $end
$var wire 1 |! genx:1:geny:2:gen|reg [7] $end
$var wire 1 }! genx:1:geny:2:gen|reg [6] $end
$var wire 1 ~! genx:1:geny:2:gen|reg [5] $end
$var wire 1 !" genx:1:geny:2:gen|reg [4] $end
$var wire 1 "" genx:1:geny:2:gen|reg [3] $end
$var wire 1 #" genx:1:geny:2:gen|reg [2] $end
$var wire 1 $" genx:1:geny:2:gen|reg [1] $end
$var wire 1 %" genx:1:geny:2:gen|reg [0] $end
$var wire 1 &" genx:1:geny:3:gen|reg [7] $end
$var wire 1 '" genx:1:geny:3:gen|reg [6] $end
$var wire 1 (" genx:1:geny:3:gen|reg [5] $end
$var wire 1 )" genx:1:geny:3:gen|reg [4] $end
$var wire 1 *" genx:1:geny:3:gen|reg [3] $end
$var wire 1 +" genx:1:geny:3:gen|reg [2] $end
$var wire 1 ," genx:1:geny:3:gen|reg [1] $end
$var wire 1 -" genx:1:geny:3:gen|reg [0] $end
$var wire 1 ." genx:2:geny:0:gen|reg [7] $end
$var wire 1 /" genx:2:geny:0:gen|reg [6] $end
$var wire 1 0" genx:2:geny:0:gen|reg [5] $end
$var wire 1 1" genx:2:geny:0:gen|reg [4] $end
$var wire 1 2" genx:2:geny:0:gen|reg [3] $end
$var wire 1 3" genx:2:geny:0:gen|reg [2] $end
$var wire 1 4" genx:2:geny:0:gen|reg [1] $end
$var wire 1 5" genx:2:geny:0:gen|reg [0] $end
$var wire 1 6" genx:2:geny:1:gen|reg [7] $end
$var wire 1 7" genx:2:geny:1:gen|reg [6] $end
$var wire 1 8" genx:2:geny:1:gen|reg [5] $end
$var wire 1 9" genx:2:geny:1:gen|reg [4] $end
$var wire 1 :" genx:2:geny:1:gen|reg [3] $end
$var wire 1 ;" genx:2:geny:1:gen|reg [2] $end
$var wire 1 <" genx:2:geny:1:gen|reg [1] $end
$var wire 1 =" genx:2:geny:1:gen|reg [0] $end
$var wire 1 >" genx:2:geny:2:gen|reg [7] $end
$var wire 1 ?" genx:2:geny:2:gen|reg [6] $end
$var wire 1 @" genx:2:geny:2:gen|reg [5] $end
$var wire 1 A" genx:2:geny:2:gen|reg [4] $end
$var wire 1 B" genx:2:geny:2:gen|reg [3] $end
$var wire 1 C" genx:2:geny:2:gen|reg [2] $end
$var wire 1 D" genx:2:geny:2:gen|reg [1] $end
$var wire 1 E" genx:2:geny:2:gen|reg [0] $end
$var wire 1 F" genx:2:geny:3:gen|reg [7] $end
$var wire 1 G" genx:2:geny:3:gen|reg [6] $end
$var wire 1 H" genx:2:geny:3:gen|reg [5] $end
$var wire 1 I" genx:2:geny:3:gen|reg [4] $end
$var wire 1 J" genx:2:geny:3:gen|reg [3] $end
$var wire 1 K" genx:2:geny:3:gen|reg [2] $end
$var wire 1 L" genx:2:geny:3:gen|reg [1] $end
$var wire 1 M" genx:2:geny:3:gen|reg [0] $end
$var wire 1 N" genx:3:geny:0:gen|reg [7] $end
$var wire 1 O" genx:3:geny:0:gen|reg [6] $end
$var wire 1 P" genx:3:geny:0:gen|reg [5] $end
$var wire 1 Q" genx:3:geny:0:gen|reg [4] $end
$var wire 1 R" genx:3:geny:0:gen|reg [3] $end
$var wire 1 S" genx:3:geny:0:gen|reg [2] $end
$var wire 1 T" genx:3:geny:0:gen|reg [1] $end
$var wire 1 U" genx:3:geny:0:gen|reg [0] $end
$var wire 1 V" genx:3:geny:1:gen|reg [7] $end
$var wire 1 W" genx:3:geny:1:gen|reg [6] $end
$var wire 1 X" genx:3:geny:1:gen|reg [5] $end
$var wire 1 Y" genx:3:geny:1:gen|reg [4] $end
$var wire 1 Z" genx:3:geny:1:gen|reg [3] $end
$var wire 1 [" genx:3:geny:1:gen|reg [2] $end
$var wire 1 \" genx:3:geny:1:gen|reg [1] $end
$var wire 1 ]" genx:3:geny:1:gen|reg [0] $end
$var wire 1 ^" genx:3:geny:2:gen|reg [7] $end
$var wire 1 _" genx:3:geny:2:gen|reg [6] $end
$var wire 1 `" genx:3:geny:2:gen|reg [5] $end
$var wire 1 a" genx:3:geny:2:gen|reg [4] $end
$var wire 1 b" genx:3:geny:2:gen|reg [3] $end
$var wire 1 c" genx:3:geny:2:gen|reg [2] $end
$var wire 1 d" genx:3:geny:2:gen|reg [1] $end
$var wire 1 e" genx:3:geny:2:gen|reg [0] $end
$var wire 1 f" genx:3:geny:3:gen|reg [7] $end
$var wire 1 g" genx:3:geny:3:gen|reg [6] $end
$var wire 1 h" genx:3:geny:3:gen|reg [5] $end
$var wire 1 i" genx:3:geny:3:gen|reg [4] $end
$var wire 1 j" genx:3:geny:3:gen|reg [3] $end
$var wire 1 k" genx:3:geny:3:gen|reg [2] $end
$var wire 1 l" genx:3:geny:3:gen|reg [1] $end
$var wire 1 m" genx:3:geny:3:gen|reg [0] $end
$var wire 1 n" genx:0:geny:0:gen|reg [7] $end
$var wire 1 o" genx:0:geny:0:gen|reg [6] $end
$var wire 1 p" genx:0:geny:0:gen|reg [5] $end
$var wire 1 q" genx:0:geny:0:gen|reg [4] $end
$var wire 1 r" genx:0:geny:0:gen|reg [3] $end
$var wire 1 s" genx:0:geny:0:gen|reg [2] $end
$var wire 1 t" genx:0:geny:0:gen|reg [1] $end
$var wire 1 u" genx:0:geny:0:gen|reg [0] $end
$var wire 1 v" key~combout [7] $end
$var wire 1 w" key~combout [6] $end
$var wire 1 x" key~combout [5] $end
$var wire 1 y" key~combout [4] $end
$var wire 1 z" key~combout [3] $end
$var wire 1 {" key~combout [2] $end
$var wire 1 |" key~combout [1] $end
$var wire 1 }" key~combout [0] $end
$var wire 1 ~" ent~combout [7] $end
$var wire 1 !# ent~combout [6] $end
$var wire 1 "# ent~combout [5] $end
$var wire 1 ## ent~combout [4] $end
$var wire 1 $# ent~combout [3] $end
$var wire 1 %# ent~combout [2] $end
$var wire 1 &# ent~combout [1] $end
$var wire 1 '# ent~combout [0] $end
$upscope $end
$upscope $end
$enddefinitions $end
#0
$dumpvars
0!
b10100110 "
b0 #
0$
0%
1&
0.
0-
0,
0+
0*
0)
0(
0'
x/
00
11
x2
13
14
15
06
07
08
09
0:
0;
0<
0=
0>
0?
0@
0A
0B
0C
0D
0E
0F
0G
0H
0I
0J
0K
0L
0M
0N
0O
0P
1Q
0R
0S
0T
0U
0V
0W
0X
0Y
0Z
0[
0\
0]
0^
0_
0`
0a
0b
0c
0d
0e
0f
0g
0h
1i
0j
0k
0l
0m
0n
0o
0p
0q
0r
0s
0t
0u
0v
0w
0x
0y
0z
0{
0|
0}
0~
0!!
0"!
0#!
0$!
0%!
0&!
0'!
0(!
0)!
0*!
0+!
0,!
0-!
0.!
0/!
00!
01!
02!
03!
04!
05!
06!
07!
08!
09!
0:!
0;!
0<!
0=!
0>!
0?!
0@!
0A!
0B!
0C!
0D!
0E!
0F!
0G!
0H!
0I!
0J!
0K!
0L!
0M!
0N!
0O!
0P!
0Q!
0R!
0S!
0[!
0Z!
0Y!
0X!
0W!
0V!
0U!
0T!
0c!
0b!
0a!
0`!
0_!
0^!
0]!
0\!
0k!
0j!
0i!
0h!
0g!
0f!
0e!
0d!
0s!
0r!
0q!
0p!
0o!
0n!
0m!
0l!
0{!
0z!
0y!
0x!
0w!
0v!
0u!
0t!
0%"
0$"
0#"
0""
0!"
0~!
0}!
0|!
0-"
0,"
0+"
0*"
0)"
0("
0'"
0&"
05"
04"
03"
02"
01"
00"
0/"
0."
0="
0<"
0;"
0:"
09"
08"
07"
06"
0E"
0D"
0C"
0B"
0A"
0@"
0?"
0>"
0M"
0L"
0K"
0J"
0I"
0H"
0G"
0F"
0U"
0T"
0S"
0R"
0Q"
0P"
0O"
0N"
0]"
0\"
0["
0Z"
0Y"
0X"
0W"
0V"
0e"
0d"
0c"
0b"
0a"
0`"
0_"
0^"
0m"
0l"
0k"
0j"
0i"
0h"
0g"
0f"
0u"
0t"
0s"
0r"
0q"
0p"
0o"
0n"
0}"
0|"
0{"
0z"
zy"
zx"
zw"
zv"
0'#
1&#
1%#
0$#
0##
1"#
0!#
1~"
$end
#5000
1!
1N
0/
1n"
1p"
1s"
1t"
1Q!
1?!
1$!
1y
1R!
1@!
1%!
1z
#10000
0!
0N
1/
#15000
1!
1N
0/
#20000
0!
0N
1/
#25000
1!
1N
0/
#30000
b100110 "
b110 "
b1110 "
b1100 "
1$
0!
0&#
1$#
0"#
0~"
1O
0N
1/
1S!
1A!
1&!
1{
1'
1)
1,
1-
#35000
1!
1N
0/
0n"
0p"
1r"
0t"
0Q!
0?!
1-!
0y
0R!
0@!
1.!
0z
0S!
0A!
1/!
0{
0'
0)
1+
0-
#40000
0!
0N
1/
#45000
1!
1N
0/
#50000
b1 #
0!
1}"
0N
1/
1h
16
0-!
0$!
0i
1K
0.!
0%!
0/!
0&!
0+
0,
#55000
1!
1N
0/
1`!
1a!
1@
1>
1*!
1!!
1/!
1&!
1+
1,
#60000
b1000 "
b1001 "
b10001001 "
0$
0!
1'#
0%#
1~"
0O
0N
1/
0/!
0&!
0+
0,
#65000
1!
1N
0/
1\!
0a!
1c!
1H
0>
18
1N!
0!!
1^
#70000
0!
0N
1/
#75000
1!
1N
0/
#80000
0!
0N
1/
#85000
1!
1N
0/
#90000
b11001001 "
b11011001 "
b11010001 "
b11010101 "
1$
0!
1%#
0$#
1##
1!#
1O
0N
1/
1S!
1/!
1l
1'
1+
1.
#95000
1!
1N
0/
1]!
1_!
0`!
1a!
1F
1B
0@
1>
1E!
13!
0*!
1!!
1J!
18!
0/!
1&!
1(
1*
0+
1,
#100000
b11 #
b10 #
0!
0}"
1|"
0N
1/
17
06
1J
0H
0F
0B
0>
08
0K
0N!
0E!
03!
0!!
0^
0S!
0J!
08!
0&!
0l
0'
0(
0*
0,
0.
#105000
1!
1N
0/
1T!
1U!
1W!
1Y!
1[!
1H
1F
1B
1>
18
1N!
1E!
13!
1!!
1^
1S!
1J!
18!
1&!
1l
1'
1(
1*
1,
1.
#110000
0!
0N
1/
#115000
1!
1N
0/
#120000
b11110101 "
b11110111 "
b11110110 "
b10110110 "
b10111110 "
b10111010 "
0$
0!
0'#
1&#
0%#
1$#
1"#
0!#
0O
0N
1/
0S!
0J!
08!
0&!
0l
0'
0(
0*
0,
0.
#125000
1!
1N
0/
0U!
1V!
1X!
0Y!
1Z!
0[!
0F
1D
1@
0>
1<
08
0E!
1<!
1*!
0!!
1s
0^
#130000
0!
0N
1/
#135000
1!
1N
0/
#140000
0!
0N
1/
#145000
1!
1N
0/
#150000
b11 #
b10111000 "
b11111000 "
b11111100 "
1$
0!
0&#
1%#
1!#
1}"
1O
0N
1/
1T
07
1S!
1A!
18!
1/!
1{
1m
0J
0H
0D
0B
0@
0<
1'
1)
1*
1+
1-
0N!
0<!
03!
0*!
0s
0S!
0A!
08!
0/!
0{
0'
0)
0*
0+
0-
#155000
1!
1N
0/
1d!
1e!
1f!
1g!
1h!
1i!
1K!
1B!
19!
10!
1'!
1|
1N!
1E!
1<!
13!
1*!
1!!
1S!
1J!
1A!
18!
1/!
1&!
1'
1(
1)
1*
1+
1,
#160000
0!
0N
1/
#165000
1!
1N
0/
#170000
0!
0N
1/
#175000
1!
1N
0/
#180000
b11101100 "
b11001100 "
b11001101 "
0!
1'#
0##
0"#
0N
1/
#185000
1!
1N
0/
0f!
0g!
1k!
09!
00!
1U
0<!
03!
1^
0A!
08!
1l
0)
0*
1.
#190000
0!
0N
1/
#195000
1!
1N
0/
#200000
b111 #
b101 #
b100 #
0!
0}"
0|"
1{"
0N
1/
1[
0T
1Z
0K!
0B!
0'!
0|
0m
0U
0N!
0E!
0*!
0!!
0^
0S!
0J!
0/!
0&!
0l
0'
0(
0+
0,
0.
#205000
1!
1N
0/
1."
1/"
12"
13"
15"
1M!
1D!
1)!
1~
1]
1N!
1E!
1*!
1!!
1^
1S!
1J!
1/!
1&!
1l
1'
1(
1+
1,
1.
#210000
0$
b11011101 "
b11111101 "
b11111100 "
0!
0O
0'#
1##
1"#
0N
1/
0S!
0J!
0/!
0&!
0l
0'
0(
0+
0,
0.
#215000
1!
1N
0/
10"
11"
05"
1;!
12!
0]
1<!
13!
0^
#220000
0!
0N
1/
#225000
1!
1N
0/
#230000
0!
0N
1/
#235000
1!
1N
0/
#240000
b1111100 "
1$
b1101100 "
b1101101 "
0!
1'#
0##
0~"
1O
0N
1/
1S!
1J!
1A!
18!
1/!
1&!
1'
1(
1)
1*
1+
1,
#245000
1!
1N
0/
0."
01"
15"
0M!
02!
1]
0N!
03!
1^
0S!
08!
1l
0'
0*
1.
#250000
b101 #
0!
1}"
0N
1/
0[
19
0D!
0;!
0)!
0~
0]
0Z
1M
0E!
0<!
0*!
0!!
0^
0J!
0A!
0/!
0&!
0l
0(
0)
0+
0,
0.
#255000
1!
1N
0/
1?"
1@"
1B"
1C"
1E"
1G
1E
1A
1?
1;
1I!
1@!
1.!
1%!
1k
1J!
1A!
1/!
1&!
1l
1(
1)
1+
1,
1.
#260000
0!
0N
1/
#265000
1!
1N
0/
#270000
b1100101 "
b1100111 "
b1100011 "
b11100011 "
0$
0!
1&#
0%#
0$#
1~"
0O
0N
1/
0J!
0A!
0/!
0&!
0l
0(
0)
0+
0,
0.
#275000
1!
1N
0/
1>"
0B"
0C"
1D"
1I
0A
0?
1=
1R!
0.!
0%!
1z
#280000
0!
0N
1/
#285000
1!
1N
0/
#290000
0!
0N
1/
#295000
1!
1N
0/
#300000
b111 #
b11000011 "
b110 #
b11000001 "
0!
0&#
0"#
0}"
1|"
0N
1/
1:
09
1L
0I
0G
0E
0=
0;
0M
0R!
0I!
0@!
0z
0k
#305000
1!
1N
0/
16"
17"
1="
1I
1G
1;
1R!
1I!
1k
#310000
0!
0N
1/
#315000
1!
1N
0/
#320000
0!
0N
1/
#325000
1!
1N
0/
#330000
b11010001 "
b11010000 "
b11011000 "
b11011010 "
0!
0'#
1&#
1$#
1##
0N
1/
#335000
1!
1N
0/
19"
1:"
1<"
0="
1C
1A
1=
0;
17!
1.!
1z
0k
#340000
0!
0N
1/
#345000
1!
1N
0/
#350000
b111 #
0!
1}"
0N
1/
1a
0:
1t
0L
0I
0G
0C
0A
0=
0R!
0I!
07!
0.!
0z
#355000
1!
1N
0/
1F"
1G"
1I"
1J"
1L"
1O!
1F!
14!
1+!
1u
1R!
1I!
17!
1.!
1z
#360000
b10011010 "
b11010 "
1$
b11011 "
0!
1'#
0!#
0~"
1O
0N
1/
1S!
1J!
18!
1/!
1{
1'
1(
1*
1+
1-
#365000
1!
1N
0/
0F"
0G"
1M"
0O!
0F!
1b
0R!
0I!
1k
0S!
0J!
1l
0'
0(
1.
#370000
0!
0N
1/
#375000
1!
1N
0/
#380000
0!
0N
1/
#385000
1!
1N
0/
#390000
b11111 "
b111111 "
0$
0!
1%#
1"#
0O
0N
1/
08!
0/!
0{
0l
0*
0+
0-
0.
#395000
1!
1N
0/
1H"
1K"
1=!
1"!
1@!
1%!
#400000
b1111 #
b1011 #
b1001 #
b1000 #
0!
0}"
0|"
0{"
1z"
0N
1/
0a
1S
0=!
04!
0+!
0"!
0u
0t
0b
1R
0@!
07!
0.!
0%!
0z
0k
#405000
1!
1N
0/
1n!
1o!
1p!
1q!
1r!
1s!
19!
10!
1'!
1|
1n
1U
1<!
13!
1*!
1!!
1s
1^
#410000
0!
0N
1/
#415000
1!
1N
0/
#420000
b101111 "
b100111 "
b1100111 "
b11100111 "
b11100011 "
1$
0!
0%#
0$#
0##
1!#
1~"
1O
0N
1/
1A!
18!
1/!
1&!
1{
1l
1)
1*
1+
1,
1-
1.
#425000
1!
1N
0/
1l!
1m!
0o!
0p!
0q!
1K!
1B!
00!
0'!
0|
1N!
1E!
03!
0*!
0!!
1S!
1J!
08!
0/!
0&!
1'
1(
0*
0+
0,
#430000
0!
0N
1/
#435000
1!
1N
0/
#440000
0!
0N
1/
#445000
1!
1N
0/
#450000
0&
b11100001 "
b11100000 "
b11000000 "
b1001 #
b11001000 "
b11001100 "
0!
0Q
1}"
0'#
0&#
1%#
1$#
0"#
0N
1/
0R
1W
0S
0K!
0B!
09!
0n
0U
0N!
0E!
0<!
0s
0^
0S!
0J!
0A!
0{
0l
0'
0(
0)
0-
0.
#455000
1!
1N
0/
#460000
0!
0N
1/
#465000
1!
1N
0/
#470000
0!
0N
1/
#475000
1!
1N
0/
#480000
b11011100 "
b10011100 "
0$
b10011110 "
b10111110 "
0!
1&#
1##
1"#
0!#
0O
0N
1/
#485000
1!
1N
0/
#490000
0!
0N
1/
#495000
1!
1N
0/
#500000
b1011 #
b1010 #
0!
0}"
1|"
0N
1/
1X
0W
#505000
1!
1N
0/
#510000
1&
b10111111 "
b10110111 "
b10100111 "
b11100111 "
1$
b11100101 "
0!
1Q
1'#
0&#
0$#
0##
1!#
1O
0N
1/
1o
#515000
1!
1N
0/
1t!
1u!
1v!
1y!
1{!
1L!
1C!
1:!
1}
1Y
1N!
1E!
1<!
1!!
1^
1S!
1J!
1A!
1&!
1l
1'
1(
1)
1,
1.
#520000
0!
0N
1/
#525000
1!
1N
0/
#530000
0!
0N
1/
#535000
1!
1N
0/
#540000
0&
b11100100 "
b10100100 "
0$
0!
0Q
0'#
0!#
0O
0N
1/
0o
0S!
0J!
0A!
0&!
0l
0'
0(
0)
0,
0.
#545000
1!
1N
0/
#550000
b1011 #
0!
1}"
0N
1/
1\
0X
0L!
0C!
0:!
0}
0Y
0N!
0E!
0<!
0!!
0^
#555000
1!
1N
0/
#560000
0!
0N
1/
#565000
1!
1N
0/
#570000
b10110100 "
1&
b11110100 "
1$
0!
1##
1!#
1Q
1O
0N
1/
1q
#575000
1!
1N
0/
1&"
1'"
1("
1)"
1+"
1M!
1D!
1;!
12!
1~
1N!
1E!
1<!
13!
1!!
1S!
1J!
1A!
18!
1&!
1'
1(
1)
1*
1,
#580000
0!
0N
1/
#585000
1!
1N
0/
#590000
0!
0N
1/
#595000
1!
1N
0/
#600000
b1111 #
b11010100 "
b1101 #
b11011100 "
b11011110 "
b11011111 "
b1100 #
0$
0!
1'#
1&#
1$#
0"#
0}"
0|"
1{"
0O
0N
1/
1`
0\
0S!
0J!
0A!
08!
0&!
1_
0M!
0D!
0;!
02!
0~
0q
0'
0(
0)
0*
0,
0N!
0E!
0<!
03!
0!!
#605000
1!
1N
0/
1N"
1O"
1Q"
1R"
1S"
1T"
1U"
1O!
1F!
14!
1+!
1"!
1u
1b
1R!
1I!
17!
1.!
1%!
1z
1k
#610000
0!
0N
1/
#615000
1!
1N
0/
#620000
0!
0N
1/
#625000
1!
1N
0/
#630000
b1011111 "
b1001111 "
0&
b1111 "
b111 "
0!
0$#
0##
0!#
0~"
0Q
0N
1/
0_
#635000
1!
1N
0/
#640000
0!
0N
1/
#645000
1!
1N
0/
#650000
b1101 #
0!
1}"
0N
1/
1d
0`
0O!
0F!
04!
0+!
0"!
0u
0b
0R!
0I!
07!
0.!
0%!
0z
0k
#655000
1!
1N
0/
#660000
b11 "
b100011 "
b100010 "
1$
b10100010 "
b10110010 "
1&
b10111010 "
0!
0'#
0%#
1$#
1##
1"#
1~"
1O
1Q
0N
1/
1c
#665000
1!
1N
0/
1^"
1`"
1a"
1b"
1d"
1P!
1>!
15!
1,!
1w
1R!
1@!
17!
1.!
1z
1S!
1A!
18!
1/!
1{
1'
1)
1*
1+
1-
#670000
0!
0N
1/
#675000
1!
1N
0/
#680000
0!
0N
1/
#685000
1!
1N
0/
#690000
b11111010 "
b11111110 "
b11011110 "
0$
b1011110 "
b1001110 "
0&
b1000110 "
0!
1%#
0$#
0##
0"#
1!#
0~"
0O
0Q
0N
1/
0S!
0A!
08!
0/!
0{
0c
0'
0)
0*
0+
0-
#695000
1!
1N
0/
#700000
b1111 #
b1110 #
0!
0}"
1|"
0N
1/
1e
0d
0P!
0>!
05!
0,!
0w
0R!
0@!
07!
0.!
0z
#705000
1!
1N
0/
#710000
0!
0N
1/
#715000
1!
1N
0/
